Data Manipulation with dplyr
…
== equal

!= not equal

Exercise: Early bird

A traveler always has meetings at 10 am so she has to arrive before 8:30 to be there on time. She is planning a trip in May and wants to arrive in STL before then. Create a dataframe flights_830 that contains all May flights that arrive at STL before 8:30

Exercise: Early bird

flights%>%
  filter(month==5, arr_time<=830,dest=="STL")->flights_830
flights_830  

# A tibble: 36 x 19
    year month   day dep_time sched_de~1 dep_d~2 arr_t~3 sched~4 arr_d~5 carrier
   <int> <int> <int>    <int>      <int>   <dbl>   <int>   <int>   <dbl> <chr>  
 1  2013     5     1      559        600      -1     725     745     -20 WN     
 2  2013     5     2      604        600       4     728     745     -17 WN     
 3  2013     5     3      600        600       0     733     745     -12 WN     
 4  2013     5     4      624        630      -6     735     815     -40 WN     
 5  2013     5     5      559        600      -1     708     745     -37 WN     
 6  2013     5     6      557        600      -3     714     745     -31 WN     
 7  2013     5     7      603        600       3     720     745     -25 WN     
 8  2013     5     8      601        600       1     721     745     -24 WN     
 9  2013     5     8     2314       2124     110      43    2305      98 EV     
10  2013     5     9      605        600       5     735     745     -10 WN     
# ... with 26 more rows, 9 more variables: flight <int>, tailnum <chr>,
#   origin <chr>, dest <chr>, air_time <dbl>, distance <dbl>, hour <dbl>,
#   minute <dbl>, time_hour <dttm>, and abbreviated variable names
#   1: sched_dep_time, 2: dep_delay, 3: arr_time, 4: sched_arr_time,
#   5: arr_delay
# i Use `print(n = ...)` to see more rows, and `colnames()` to see all variable names

Logical operators

& and

| or

! not

Now lets get all flights in November and December:

filter(flights, month == 11 | month == 12)

# A tibble: 55,403 x 19
    year month   day dep_time sched_de~1 dep_d~2 arr_t~3 sched~4 arr_d~5 carrier
   <int> <int> <int>    <int>      <int>   <dbl>   <int>   <int>   <dbl> <chr>  
 1  2013    11     1        5       2359       6     352     345       7 B6     
 2  2013    11     1       35       2250     105     123    2356      87 B6     
 3  2013    11     1      455        500      -5     641     651     -10 US     
 4  2013    11     1      539        545      -6     856     827      29 UA     
 5  2013    11     1      542        545      -3     831     855     -24 AA     
 6  2013    11     1      549        600     -11     912     923     -11 UA     
 7  2013    11     1      550        600     -10     705     659       6 US     
 8  2013    11     1      554        600      -6     659     701      -2 US     
 9  2013    11     1      554        600      -6     826     827      -1 DL     
10  2013    11     1      554        600      -6     749     751      -2 DL     
# ... with 55,393 more rows, 9 more variables: flight <int>, tailnum <chr>,
#   origin <chr>, dest <chr>, air_time <dbl>, distance <dbl>, hour <dbl>,
#   minute <dbl>, time_hour <dttm>, and abbreviated variable names
#   1: sched_dep_time, 2: dep_delay, 3: arr_time, 4: sched_arr_time,
#   5: arr_delay
# i Use `print(n = ...)` to see more rows, and `colnames()` to see all variable names

Logical operators

flights%>%filter(month==11| month ==12)

# A tibble: 55,403 x 19
    year month   day dep_time sched_de~1 dep_d~2 arr_t~3 sched~4 arr_d~5 carrier
   <int> <int> <int>    <int>      <int>   <dbl>   <int>   <int>   <dbl> <chr>  
 1  2013    11     1        5       2359       6     352     345       7 B6     
 2  2013    11     1       35       2250     105     123    2356      87 B6     
 3  2013    11     1      455        500      -5     641     651     -10 US     
 4  2013    11     1      539        545      -6     856     827      29 UA     
 5  2013    11     1      542        545      -3     831     855     -24 AA     
 6  2013    11     1      549        600     -11     912     923     -11 UA     
 7  2013    11     1      550        600     -10     705     659       6 US     
 8  2013    11     1      554        600      -6     659     701      -2 US     
 9  2013    11     1      554        600      -6     826     827      -1 DL     
10  2013    11     1      554        600      -6     749     751      -2 DL     
# ... with 55,393 more rows, 9 more variables: flight <int>, tailnum <chr>,
#   origin <chr>, dest <chr>, air_time <dbl>, distance <dbl>, hour <dbl>,
#   minute <dbl>, time_hour <dttm>, and abbreviated variable names
#   1: sched_dep_time, 2: dep_delay, 3: arr_time, 4: sched_arr_time,
#   5: arr_delay
# i Use `print(n = ...)` to see more rows, and `colnames()` to see all variable names

Logical operators

filter(flights, month %in% c(11, 12))

# A tibble: 55,403 x 19
    year month   day dep_time sched_de~1 dep_d~2 arr_t~3 sched~4 arr_d~5 carrier
   <int> <int> <int>    <int>      <int>   <dbl>   <int>   <int>   <dbl> <chr>  
 1  2013    11     1        5       2359       6     352     345       7 B6     
 2  2013    11     1       35       2250     105     123    2356      87 B6     
 3  2013    11     1      455        500      -5     641     651     -10 US     
 4  2013    11     1      539        545      -6     856     827      29 UA     
 5  2013    11     1      542        545      -3     831     855     -24 AA     
 6  2013    11     1      549        600     -11     912     923     -11 UA     
 7  2013    11     1      550        600     -10     705     659       6 US     
 8  2013    11     1      554        600      -6     659     701      -2 US     
 9  2013    11     1      554        600      -6     826     827      -1 DL     
10  2013    11     1      554        600      -6     749     751      -2 DL     
# ... with 55,393 more rows, 9 more variables: flight <int>, tailnum <chr>,
#   origin <chr>, dest <chr>, air_time <dbl>, distance <dbl>, hour <dbl>,
#   minute <dbl>, time_hour <dttm>, and abbreviated variable names
#   1: sched_dep_time, 2: dep_delay, 3: arr_time, 4: sched_arr_time,
#   5: arr_delay
# i Use `print(n = ...)` to see more rows, and `colnames()` to see all variable names

Logical operators

If we wanted to find flights that weren’t delayed (on arrival or departure) by more than two hours, you could use either of the following two filters:

filter(flights, !(arr_delay > 120 | dep_delay > 120))

# A tibble: 316,050 x 19
    year month   day dep_time sched_de~1 dep_d~2 arr_t~3 sched~4 arr_d~5 carrier
   <int> <int> <int>    <int>      <int>   <dbl>   <int>   <int>   <dbl> <chr>  
 1  2013     1     1      517        515       2     830     819      11 UA     
 2  2013     1     1      533        529       4     850     830      20 UA     
 3  2013     1     1      542        540       2     923     850      33 AA     
 4  2013     1     1      544        545      -1    1004    1022     -18 B6     
 5  2013     1     1      554        600      -6     812     837     -25 DL     
 6  2013     1     1      554        558      -4     740     728      12 UA     
 7  2013     1     1      555        600      -5     913     854      19 B6     
 8  2013     1     1      557        600      -3     709     723     -14 EV     
 9  2013     1     1      557        600      -3     838     846      -8 B6     
10  2013     1     1      558        600      -2     753     745       8 AA     
# ... with 316,040 more rows, 9 more variables: flight <int>, tailnum <chr>,
#   origin <chr>, dest <chr>, air_time <dbl>, distance <dbl>, hour <dbl>,
#   minute <dbl>, time_hour <dttm>, and abbreviated variable names
#   1: sched_dep_time, 2: dep_delay, 3: arr_time, 4: sched_arr_time,
#   5: arr_delay
# i Use `print(n = ...)` to see more rows, and `colnames()` to see all variable names

Logical operators

filter(flights, arr_delay <= 120, dep_delay <= 120)

# A tibble: 316,050 x 19
    year month   day dep_time sched_de~1 dep_d~2 arr_t~3 sched~4 arr_d~5 carrier
   <int> <int> <int>    <int>      <int>   <dbl>   <int>   <int>   <dbl> <chr>  
 1  2013     1     1      517        515       2     830     819      11 UA     
 2  2013     1     1      533        529       4     850     830      20 UA     
 3  2013     1     1      542        540       2     923     850      33 AA     
 4  2013     1     1      544        545      -1    1004    1022     -18 B6     
 5  2013     1     1      554        600      -6     812     837     -25 DL     
 6  2013     1     1      554        558      -4     740     728      12 UA     
 7  2013     1     1      555        600      -5     913     854      19 B6     
 8  2013     1     1      557        600      -3     709     723     -14 EV     
 9  2013     1     1      557        600      -3     838     846      -8 B6     
10  2013     1     1      558        600      -2     753     745       8 AA     
# ... with 316,040 more rows, 9 more variables: flight <int>, tailnum <chr>,
#   origin <chr>, dest <chr>, air_time <dbl>, distance <dbl>, hour <dbl>,
#   minute <dbl>, time_hour <dttm>, and abbreviated variable names
#   1: sched_dep_time, 2: dep_delay, 3: arr_time, 4: sched_arr_time,
#   5: arr_delay
# i Use `print(n = ...)` to see more rows, and `colnames()` to see all variable names
…
Arrange rows with arrange()

arrange() works similarly to filter() except that instead of selecting rows, it changes their order.

It takes a data frame and a set of column names (or more complicated expressions) to order by.

If you provide more than one column name, each additional column will be used to break ties in the values of preceding columns.

flights%>%arrange(year, month, day)

# A tibble: 336,776 x 19
    year month   day dep_time sched_de~1 dep_d~2 arr_t~3 sched~4 arr_d~5 carrier
   <int> <int> <int>    <int>      <int>   <dbl>   <int>   <int>   <dbl> <chr>  
 1  2013     1     1      517        515       2     830     819      11 UA     
 2  2013     1     1      533        529       4     850     830      20 UA     
 3  2013     1     1      542        540       2     923     850      33 AA     
 4  2013     1     1      544        545      -1    1004    1022     -18 B6     
 5  2013     1     1      554        600      -6     812     837     -25 DL     
 6  2013     1     1      554        558      -4     740     728      12 UA     
 7  2013     1     1      555        600      -5     913     854      19 B6     
 8  2013     1     1      557        600      -3     709     723     -14 EV     
 9  2013     1     1      557        600      -3     838     846      -8 B6     
10  2013     1     1      558        600      -2     753     745       8 AA     
# ... with 336,766 more rows, 9 more variables: flight <int>, tailnum <chr>,
#   origin <chr>, dest <chr>, air_time <dbl>, distance <dbl>, hour <dbl>,
#   minute <dbl>, time_hour <dttm>, and abbreviated variable names
#   1: sched_dep_time, 2: dep_delay, 3: arr_time, 4: sched_arr_time,
#   5: arr_delay
# i Use `print(n = ...)` to see more rows, and `colnames()` to see all variable names

Arrange rows with arrange()-Continued

Use desc() to re-order by a column in descending order:

flights%>%arrange(desc(dep_delay))

# A tibble: 336,776 x 19
    year month   day dep_time sched_de~1 dep_d~2 arr_t~3 sched~4 arr_d~5 carrier
   <int> <int> <int>    <int>      <int>   <dbl>   <int>   <int>   <dbl> <chr>  
 1  2013     1     9      641        900    1301    1242    1530    1272 HA     
 2  2013     6    15     1432       1935    1137    1607    2120    1127 MQ     
 3  2013     1    10     1121       1635    1126    1239    1810    1109 MQ     
 4  2013     9    20     1139       1845    1014    1457    2210    1007 AA     
 5  2013     7    22      845       1600    1005    1044    1815     989 MQ     
 6  2013     4    10     1100       1900     960    1342    2211     931 DL     
 7  2013     3    17     2321        810     911     135    1020     915 DL     
 8  2013     6    27      959       1900     899    1236    2226     850 DL     
 9  2013     7    22     2257        759     898     121    1026     895 DL     
10  2013    12     5      756       1700     896    1058    2020     878 AA     
# ... with 336,766 more rows, 9 more variables: flight <int>, tailnum <chr>,
#   origin <chr>, dest <chr>, air_time <dbl>, distance <dbl>, hour <dbl>,
#   minute <dbl>, time_hour <dttm>, and abbreviated variable names
#   1: sched_dep_time, 2: dep_delay, 3: arr_time, 4: sched_arr_time,
#   5: arr_delay
# i Use `print(n = ...)` to see more rows, and `colnames()` to see all variable names
…
Select columns with select()

Narrow in on the variables we are interested in

Select() allows to rapidly zoom in on a useful subset using operations based on the names of the variables

# Select columns by name
select(flights, year,month, day)

# A tibble: 336,776 x 3
    year month   day
   <int> <int> <int>
 1  2013     1     1
 2  2013     1     1
 3  2013     1     1
 4  2013     1     1
 5  2013     1     1
 6  2013     1     1
 7  2013     1     1
 8  2013     1     1
 9  2013     1     1
10  2013     1     1
# ... with 336,766 more rows
# i Use `print(n = ...)` to see more rows

Select columns with select()

# Select all columns between year and day (inclusive)
select(flights, year:day)

# A tibble: 336,776 x 3
    year month   day
   <int> <int> <int>
 1  2013     1     1
 2  2013     1     1
 3  2013     1     1
 4  2013     1     1
 5  2013     1     1
 6  2013     1     1
 7  2013     1     1
 8  2013     1     1
 9  2013     1     1
10  2013     1     1
# ... with 336,766 more rows
# i Use `print(n = ...)` to see more rows

Select columns with select()

# Select all columns except those from year to day (inclusive)
select(flights, -(year:day))

# A tibble: 336,776 x 16
   dep_t~1 sched~2 dep_d~3 arr_t~4 sched~5 arr_d~6 carrier flight tailnum origin
     <int>   <int>   <dbl>   <int>   <int>   <dbl> <chr>    <int> <chr>   <chr> 
 1     517     515       2     830     819      11 UA        1545 N14228  EWR   
 2     533     529       4     850     830      20 UA        1714 N24211  LGA   
 3     542     540       2     923     850      33 AA        1141 N619AA  JFK   
 4     544     545      -1    1004    1022     -18 B6         725 N804JB  JFK   
 5     554     600      -6     812     837     -25 DL         461 N668DN  LGA   
 6     554     558      -4     740     728      12 UA        1696 N39463  EWR   
 7     555     600      -5     913     854      19 B6         507 N516JB  EWR   
 8     557     600      -3     709     723     -14 EV        5708 N829AS  LGA   
 9     557     600      -3     838     846      -8 B6          79 N593JB  JFK   
10     558     600      -2     753     745       8 AA         301 N3ALAA  LGA   
# ... with 336,766 more rows, 6 more variables: dest <chr>, air_time <dbl>,
#   distance <dbl>, hour <dbl>, minute <dbl>, time_hour <dttm>, and abbreviated
#   variable names 1: dep_time, 2: sched_dep_time, 3: dep_delay, 4: arr_time,
#   5: sched_arr_time, 6: arr_delay
# i Use `print(n = ...)` to see more rows, and `colnames()` to see all variable names
…
There are a number of helper functions we can use within select():

starts_with(“abc”): matches names that begin with “abc”

ends_with(“xyz”): matches names that end with “xyz”

contains(“ijk”): matches names that contain “ijk”

num_range(“x”, 1:3): matches x1, x2, and x3

Select columns with select()

everything() is useful for rearranging columns

# A tibble: 336,776 x 19
   time_hour           air_t~1  year month   day dep_t~2 sched~3 dep_d~4 arr_t~5
   <dttm>                <dbl> <int> <int> <int>   <int>   <int>   <dbl>   <int>
 1 2013-01-01 05:00:00     227  2013     1     1     517     515       2     830
 2 2013-01-01 05:00:00     227  2013     1     1     533     529       4     850
 3 2013-01-01 05:00:00     160  2013     1     1     542     540       2     923
 4 2013-01-01 05:00:00     183  2013     1     1     544     545      -1    1004
 5 2013-01-01 06:00:00     116  2013     1     1     554     600      -6     812
 6 2013-01-01 05:00:00     150  2013     1     1     554     558      -4     740
 7 2013-01-01 06:00:00     158  2013     1     1     555     600      -5     913
 8 2013-01-01 06:00:00      53  2013     1     1     557     600      -3     709
 9 2013-01-01 06:00:00     140  2013     1     1     557     600      -3     838
10 2013-01-01 06:00:00     138  2013     1     1     558     600      -2     753
# ... with 336,766 more rows, 10 more variables: sched_arr_time <int>,
#   arr_delay <dbl>, carrier <chr>, flight <int>, tailnum <chr>, origin <chr>,
#   dest <chr>, distance <dbl>, hour <dbl>, minute <dbl>, and abbreviated
#   variable names 1: air_time, 2: dep_time, 3: sched_dep_time, 4: dep_delay,
#   5: arr_time
# i Use `print(n = ...)` to see more rows, and `colnames()` to see all variable names

Rename variables with rename()

rename(flights, tail_num = tailnum)

# A tibble: 336,776 x 19
    year month   day dep_time sched_de~1 dep_d~2 arr_t~3 sched~4 arr_d~5 carrier
   <int> <int> <int>    <int>      <int>   <dbl>   <int>   <int>   <dbl> <chr>  
 1  2013     1     1      517        515       2     830     819      11 UA     
 2  2013     1     1      533        529       4     850     830      20 UA     
 3  2013     1     1      542        540       2     923     850      33 AA     
 4  2013     1     1      544        545      -1    1004    1022     -18 B6     
 5  2013     1     1      554        600      -6     812     837     -25 DL     
 6  2013     1     1      554        558      -4     740     728      12 UA     
 7  2013     1     1      555        600      -5     913     854      19 B6     
 8  2013     1     1      557        600      -3     709     723     -14 EV     
 9  2013     1     1      557        600      -3     838     846      -8 B6     
10  2013     1     1      558        600      -2     753     745       8 AA     
# ... with 336,766 more rows, 9 more variables: flight <int>, tail_num <chr>,
#   origin <chr>, dest <chr>, air_time <dbl>, distance <dbl>, hour <dbl>,
#   minute <dbl>, time_hour <dttm>, and abbreviated variable names
#   1: sched_dep_time, 2: dep_delay, 3: arr_time, 4: sched_arr_time,
#   5: arr_delay
# i Use `print(n = ...)` to see more rows, and `colnames()` to see all variable names
…
flights_sml <- select(flights, 
  year:day, 
  ends_with("delay"), 
  distance, 
  air_time
)

Add new variable with mutate()

mutate(flights_sml,
  gain = dep_delay - arr_delay,
  speed = distance / air_time * 60
)

# A tibble: 336,776 x 9
    year month   day dep_delay arr_delay distance air_time  gain speed
   <int> <int> <int>     <dbl>     <dbl>    <dbl>    <dbl> <dbl> <dbl>
 1  2013     1     1         2        11     1400      227    -9  370.
 2  2013     1     1         4        20     1416      227   -16  374.
 3  2013     1     1         2        33     1089      160   -31  408.
 4  2013     1     1        -1       -18     1576      183    17  517.
 5  2013     1     1        -6       -25      762      116    19  394.
 6  2013     1     1        -4        12      719      150   -16  288.
 7  2013     1     1        -5        19     1065      158   -24  404.
 8  2013     1     1        -3       -14      229       53    11  259.
 9  2013     1     1        -3        -8      944      140     5  405.
10  2013     1     1        -2         8      733      138   -10  319.
# ... with 336,766 more rows
# i Use `print(n = ...)` to see more rows
…
