Data Vizualization in R
…
# Data Visualization with R
## <span style = 'color:#6C7B7F'>Base R has many tools that are fast and easy. Often works well with other packages</span>
## <span style = 'color:#6C7B7F'>ggplot2 works well with the tidyverse and is friendly and powerful</span>
## <span style = 'color:#E69F00'>Better plots</span> are <span style = 'color:#56B4E9'>better communication</span>

---

# Plots in Base R

```r
as_tibble(mtcars)
```

```
## # A tibble: 32 x 11
##      mpg   cyl  disp    hp  drat    wt  qsec    vs    am  gear  carb
##  * <dbl> <dbl> <dbl> <dbl> <dbl> <dbl> <dbl> <dbl> <dbl> <dbl> <dbl>
##  1  21       6  160    110  3.9   2.62  16.5     0     1     4     4
##  2  21       6  160    110  3.9   2.88  17.0     0     1     4     4
##  3  22.8     4  108     93  3.85  2.32  18.6     1     1     4     1
##  4  21.4     6  258    110  3.08  3.22  19.4     1     0     3     1
##  5  18.7     8  360    175  3.15  3.44  17.0     0     0     3     2
##  6  18.1     6  225    105  2.76  3.46  20.2     1     0     3     1
##  7  14.3     8  360    245  3.21  3.57  15.8     0     0     3     4
##  8  24.4     4  147.    62  3.69  3.19  20       1     0     4     2
##  9  22.8     4  141.    95  3.92  3.15  22.9     1     0     4     2
## 10  19.2     6  168.   123  3.92  3.44  18.3     1     0     4     4
## # ... with 22 more rows
```
…
<img src="data_viz_slides_files/figure-html/unnamed-chunk-49-1.png" style="display: block; margin: auto;" />

---

## datasauRus

```r
library(datasauRus)
datasaurus_dozen 
```

```
## # A tibble: 1,846 x 3
##    dataset     x     y
##    <chr>   <dbl> <dbl>
##  1 dino     55.4  97.2
##  2 dino     51.5  96.0
##  3 dino     46.2  94.5
##  4 dino     42.8  91.4
##  5 dino     40.8  88.3
##  6 dino     38.7  84.9
##  7 dino     35.6  79.9
##  8 dino     33.1  77.6
##  9 dino     29.0  74.5
## 10 dino     26.2  71.4
## # ... with 1,836 more rows
```
…
