R Bootcamp day 2 Simulations and Language Fundamentals
…
As from Day 1, we can use the readr package to read this CSV file

# Loading the R package
library(readr)

# Reading the data
dow <- read_csv(
  "HistoricalPrices.csv",
  # We can tell the function how the data is stored
  col_types = cols(Date = col_date(format = "%m/%d/%y"))
  )

dow

## # A tibble: 7,124 x 5
##    Date         Open   High    Low  Close
##    <date>      <dbl>  <dbl>  <dbl>  <dbl>
##  1 2018-07-13 24926. 25043. 24890. 25019.
##  2 2018-07-12 24803. 24940. 24803. 24925.
##  3 2018-07-11 24789. 24815. 24664. 24700.
##  4 2018-07-10 24807. 24945. 24807. 24920.
##  5 2018-07-09 24519. 24797. 24518. 24777.
##  6 2018-07-06 24352. 24520. 24281. 24456.
##  7 2018-07-05 24286. 24373. 24177. 24357.
##  8 2018-07-03 24359. 24445. 24151. 24175.
##  9 2018-07-02 24162. 24319. 24078. 24307.
## 10 2018-06-29 24324. 24510. 24270. 24271.
## # ... with 7,114 more rows
…
# Filtering the data
dow_monthly <- dow %>%           # Passing the dataset
  arrange(Date) %>%              # Sorting by date
  mutate(
    month     = months(Date),    # Extracting month
    month_lag = lag(month)       # Creating a lag of month
  ) %>%
  filter(month != month_lag) %>% # Keeping the last day of the month
  mutate(
    r = Close/lag(Close) - 1     # Computing the monthly return
  )

dow_monthly

## # A tibble: 339 x 8
##    Date        Open  High   Low Close month     month_lag          r
##    <date>     <dbl> <dbl> <dbl> <dbl> <chr>     <chr>          <dbl>
##  1 1990-05-01 2669. 2687. 2651. 2669. May       April      NA       
##  2 1990-06-01 2901. 2920. 2869. 2901. June      May         0.0869  
##  3 1990-07-02 2899. 2909. 2870. 2899. July      June       -0.000589
##  4 1990-08-01 2899. 2931. 2875  2899. August    July        0       
##  5 1990-09-04 2613. 2618. 2573. 2613. September August     -0.0986  
##  6 1990-10-01 2516. 2535. 2447. 2516. October   September  -0.0373  
##  7 1990-11-01 2455. 2473. 2416. 2455. November  October    -0.0242  
##  8 1990-12-03 2566. 2590. 2544. 2566. December  November    0.0451  
##  9 1991-01-02 2611. 2652. 2601. 2611. January   December    0.0176  
## 10 1991-02-01 2731. 2765. 2694. 2731. February  January     0.0460  
## # ... with 329 more rows
…
